{
  "annotations": {
    "list": [
      {
        "$$hashKey": "object:7462",
        "builtIn": 1,
        "datasource": "-- Grafana --",
        "enable": true,
        "hide": true,
        "iconColor": "rgba(0, 211, 255, 1)",
        "name": "Annotations & Alerts",
        "type": "dashboard"
      }
    ]
  },
  "editable": true,
  "gnetId": null,
  "graphTooltip": 0,
  "id": 6,
  "links": [],
  "panels": [
    {
      "datasource": null,
      "gridPos": {
        "h": 5,
        "w": 5,
        "x": 0,
        "y": 0
      },
      "id": 2,
      "options": {
        "fieldOptions": {
          "calcs": [
            "mean"
          ],
          "defaults": {
            "decimals": 3,
            "mappings": [],
            "max": 3,
            "min": 0,
            "thresholds": {
              "mode": "absolute",
              "steps": [
                {
                  "color": "green",
                  "value": null
                },
                {
                  "color": "red",
                  "value": 2.4
                }
              ]
            },
            "title": "",
            "unit": "s"
          },
          "overrides": [],
          "values": false
        },
        "orientation": "auto",
        "showThresholdLabels": false,
        "showThresholdMarkers": true
      },
      "pluginVersion": "6.7.0-beta1",
      "targets": [
        {
          "$$hashKey": "object:7759",
          "application": {
            "filter": ""
          },
          "datasource": "Zabbix",
          "functions": [],
          "group": {
            "filter": "WebServers"
          },
          "host": {
            "filter": "BASF Webserver"
          },
          "item": {
            "filter": "Response time for step \"Load website\" of scenario \"Aplicação BASF\"."
          },
          "mode": 0,
          "options": {
            "showDisabledItems": false,
            "skipEmptyValues": false
          },
          "proxy": {
            "filter": ""
          },
          "refId": "A",
          "resultFormat": "time_series",
          "table": {
            "skipEmptyValues": false
          },
          "tags": {
            "filter": ""
          },
          "trigger": {
            "filter": ""
          },
          "triggers": {
            "acknowledged": 2,
            "count": true,
            "minSeverity": 3
          }
        }
      ],
      "timeFrom": null,
      "timeShift": null,
      "title": "Link - BASF",
      "type": "gauge"
    },
    {
      "datasource": null,
      "gridPos": {
        "h": 5,
        "w": 5,
        "x": 5,
        "y": 0
      },
      "id": 9,
      "options": {
        "fieldOptions": {
          "calcs": [
            "mean"
          ],
          "defaults": {
            "mappings": [],
            "max": 3,
            "min": 0,
            "thresholds": {
              "mode": "absolute",
              "steps": [
                {
                  "color": "green",
                  "value": null
                },
                {
                  "color": "red",
                  "value": 2.4
                }
              ]
            },
            "title": "",
            "unit": "s"
          },
          "overrides": [],
          "values": false
        },
        "orientation": "auto",
        "showThresholdLabels": false,
        "showThresholdMarkers": true
      },
      "pluginVersion": "6.7.0-beta1",
      "targets": [
        {
          "$$hashKey": "object:7759",
          "application": {
            "filter": ""
          },
          "datasource": "Zabbix",
          "functions": [],
          "group": {
            "filter": "WebServers"
          },
          "host": {
            "filter": "BBA Webserver"
          },
          "item": {
            "filter": "Response time for step \"Load website\" of scenario \"Aplicação BBA\"."
          },
          "mode": 0,
          "options": {
            "showDisabledItems": false,
            "skipEmptyValues": false
          },
          "proxy": {
            "filter": ""
          },
          "refId": "B",
          "resultFormat": "time_series",
          "table": {
            "skipEmptyValues": false
          },
          "tags": {
            "filter": ""
          },
          "trigger": {
            "filter": ""
          },
          "triggers": {
            "acknowledged": 2,
            "count": true,
            "minSeverity": 3
          }
        }
      ],
      "timeFrom": null,
      "timeShift": null,
      "title": "Link - BBA",
      "type": "gauge"
    },
    {
      "datasource": null,
      "gridPos": {
        "h": 5,
        "w": 5,
        "x": 10,
        "y": 0
      },
      "id": 8,
      "options": {
        "fieldOptions": {
          "calcs": [
            "mean"
          ],
          "defaults": {
            "mappings": [],
            "max": 3,
            "min": 0,
            "thresholds": {
              "mode": "absolute",
              "steps": [
                {
                  "color": "green",
                  "value": null
                },
                {
                  "color": "red",
                  "value": 2.4
                }
              ]
            },
            "title": "",
            "unit": "s"
          },
          "overrides": [],
          "values": false
        },
        "orientation": "auto",
        "showThresholdLabels": false,
        "showThresholdMarkers": true
      },
      "pluginVersion": "6.7.0-beta1",
      "targets": [
        {
          "$$hashKey": "object:7759",
          "application": {
            "filter": ""
          },
          "datasource": "Zabbix",
          "functions": [],
          "group": {
            "filter": "WebServers"
          },
          "host": {
            "filter": "Iconic WebServer"
          },
          "item": {
            "filter": "Response time for step \"Load website\" of scenario \"Aplicação Iconic Customização\"."
          },
          "mode": 0,
          "options": {
            "showDisabledItems": false,
            "skipEmptyValues": false
          },
          "proxy": {
            "filter": ""
          },
          "refId": "C",
          "resultFormat": "time_series",
          "table": {
            "skipEmptyValues": false
          },
          "tags": {
            "filter": ""
          },
          "trigger": {
            "filter": ""
          },
          "triggers": {
            "acknowledged": 2,
            "count": true,
            "minSeverity": 3
          }
        }
      ],
      "timeFrom": null,
      "timeShift": null,
      "title": "Link - Iconic Customização",
      "type": "gauge"
    },
    {
      "datasource": null,
      "gridPos": {
        "h": 5,
        "w": 5,
        "x": 15,
        "y": 0
      },
      "id": 7,
      "options": {
        "fieldOptions": {
          "calcs": [
            "mean"
          ],
          "defaults": {
            "mappings": [],
            "max": 3,
            "min": 0,
            "thresholds": {
              "mode": "absolute",
              "steps": [
                {
                  "color": "green",
                  "value": null
                },
                {
                  "color": "red",
                  "value": 2.4
                }
              ]
            },
            "title": "",
            "unit": "s"
          },
          "overrides": [],
          "values": false
        },
        "orientation": "auto",
        "showThresholdLabels": false,
        "showThresholdMarkers": true
      },
      "pluginVersion": "6.7.0-beta1",
      "targets": [
        {
          "$$hashKey": "object:7759",
          "application": {
            "filter": ""
          },
          "datasource": "Zabbix",
          "functions": [],
          "group": {
            "filter": "WebServers"
          },
          "host": {
            "filter": "Iconic WebServer"
          },
          "item": {
            "filter": "Response time for step \"Load website\" of scenario \"Aplicação Iconic DC\"."
          },
          "mode": 0,
          "options": {
            "showDisabledItems": false,
            "skipEmptyValues": false
          },
          "proxy": {
            "filter": ""
          },
          "refId": "D",
          "resultFormat": "time_series",
          "table": {
            "skipEmptyValues": false
          },
          "tags": {
            "filter": ""
          },
          "trigger": {
            "filter": ""
          },
          "triggers": {
            "acknowledged": 2,
            "count": true,
            "minSeverity": 3
          }
        }
      ],
      "timeFrom": null,
      "timeShift": null,
      "title": "Link - Iconic DC",
      "type": "gauge"
    },
    {
      "datasource": null,
      "gridPos": {
        "h": 5,
        "w": 4,
        "x": 20,
        "y": 0
      },
      "id": 6,
      "options": {
        "fieldOptions": {
          "calcs": [
            "mean"
          ],
          "defaults": {
            "mappings": [],
            "max": 3,
            "min": 0,
            "thresholds": {
              "mode": "absolute",
              "steps": [
                {
                  "color": "green",
                  "value": null
                },
                {
                  "color": "red",
                  "value": 2.4
                }
              ]
            },
            "title": "",
            "unit": "s"
          },
          "overrides": [],
          "values": false
        },
        "orientation": "auto",
        "showThresholdLabels": false,
        "showThresholdMarkers": true
      },
      "pluginVersion": "6.7.0-beta1",
      "targets": [
        {
          "$$hashKey": "object:7759",
          "application": {
            "filter": ""
          },
          "datasource": "Zabbix",
          "functions": [],
          "group": {
            "filter": "WebServers"
          },
          "host": {
            "filter": "Iconic WebServer"
          },
          "item": {
            "filter": "Response time for step \"Load website\" of scenario \"Aplicação Iconic SC\"."
          },
          "mode": 0,
          "options": {
            "showDisabledItems": false,
            "skipEmptyValues": false
          },
          "proxy": {
            "filter": ""
          },
          "refId": "E",
          "resultFormat": "time_series",
          "table": {
            "skipEmptyValues": false
          },
          "tags": {
            "filter": ""
          },
          "trigger": {
            "filter": ""
          },
          "triggers": {
            "acknowledged": 2,
            "count": true,
            "minSeverity": 3
          }
        }
      ],
      "timeFrom": null,
      "timeShift": null,
      "title": "Link - Iconic SC",
      "type": "gauge"
    },
    {
      "datasource": null,
      "gridPos": {
        "h": 5,
        "w": 5,
        "x": 0,
        "y": 5
      },
      "id": 5,
      "options": {
        "fieldOptions": {
          "calcs": [
            "mean"
          ],
          "defaults": {
            "mappings": [],
            "max": 3,
            "min": 0,
            "thresholds": {
              "mode": "absolute",
              "steps": [
                {
                  "color": "green",
                  "value": null
                },
                {
                  "color": "red",
                  "value": 2.4
                }
              ]
            },
            "title": "",
            "unit": "s"
          },
          "overrides": [],
          "values": false
        },
        "orientation": "auto",
        "showThresholdLabels": false,
        "showThresholdMarkers": true
      },
      "pluginVersion": "6.7.0-beta1",
      "targets": [
        {
          "$$hashKey": "object:7759",
          "application": {
            "filter": ""
          },
          "datasource": "Zabbix",
          "functions": [],
          "group": {
            "filter": "WebServers"
          },
          "host": {
            "filter": "Prysmian Webserver"
          },
          "item": {
            "filter": "Response time for step \"Load website\" of scenario \"Aplicação Prysmian\"."
          },
          "mode": 0,
          "options": {
            "showDisabledItems": false,
            "skipEmptyValues": false
          },
          "proxy": {
            "filter": ""
          },
          "refId": "F",
          "resultFormat": "time_series",
          "table": {
            "skipEmptyValues": false
          },
          "tags": {
            "filter": ""
          },
          "trigger": {
            "filter": ""
          },
          "triggers": {
            "acknowledged": 2,
            "count": true,
            "minSeverity": 3
          }
        }
      ],
      "timeFrom": null,
      "timeShift": null,
      "title": "Link - Prysmian",
      "type": "gauge"
    },
    {
      "datasource": null,
      "gridPos": {
        "h": 5,
        "w": 5,
        "x": 5,
        "y": 5
      },
      "id": 4,
      "options": {
        "fieldOptions": {
          "calcs": [
            "mean"
          ],
          "defaults": {
            "mappings": [],
            "max": 3,
            "min": 0,
            "thresholds": {
              "mode": "absolute",
              "steps": [
                {
                  "color": "green",
                  "value": null
                },
                {
                  "color": "red",
                  "value": 2.4
                }
              ]
            },
            "title": "",
            "unit": "s"
          },
          "overrides": [],
          "values": false
        },
        "orientation": "auto",
        "showThresholdLabels": false,
        "showThresholdMarkers": true
      },
      "pluginVersion": "6.7.0-beta1",
      "targets": [
        {
          "$$hashKey": "object:7759",
          "application": {
            "filter": ""
          },
          "datasource": "Zabbix",
          "functions": [],
          "group": {
            "filter": "WebServers"
          },
          "host": {
            "filter": "Shell Webserver"
          },
          "item": {
            "filter": "Response time for step \"Load website\" of scenario \"Aplicação Shell Agenda\"."
          },
          "mode": 0,
          "options": {
            "showDisabledItems": false,
            "skipEmptyValues": false
          },
          "proxy": {
            "filter": ""
          },
          "refId": "G",
          "resultFormat": "time_series",
          "table": {
            "skipEmptyValues": false
          },
          "tags": {
            "filter": ""
          },
          "trigger": {
            "filter": ""
          },
          "triggers": {
            "acknowledged": 2,
            "count": true,
            "minSeverity": 3
          }
        }
      ],
      "timeFrom": null,
      "timeShift": null,
      "title": "Link - Shell Agenda",
      "type": "gauge"
    },
    {
      "datasource": null,
      "gridPos": {
        "h": 5,
        "w": 5,
        "x": 10,
        "y": 5
      },
      "id": 3,
      "options": {
        "fieldOptions": {
          "calcs": [
            "mean"
          ],
          "defaults": {
            "mappings": [],
            "max": 3,
            "min": 0,
            "thresholds": {
              "mode": "absolute",
              "steps": [
                {
                  "color": "green",
                  "value": null
                },
                {
                  "color": "red",
                  "value": 2.4
                }
              ]
            },
            "title": "",
            "unit": "s"
          },
          "overrides": [],
          "values": false
        },
        "orientation": "auto",
        "showThresholdLabels": false,
        "showThresholdMarkers": true
      },
      "pluginVersion": "6.7.0-beta1",
      "targets": [
        {
          "$$hashKey": "object:7759",
          "application": {
            "filter": ""
          },
          "datasource": "Zabbix",
          "functions": [],
          "group": {
            "filter": "WebServers"
          },
          "host": {
            "filter": "Shell Webserver"
          },
          "item": {
            "filter": "Response time for step \"Aplicação Shell Pátio\" of scenario \"Aplicação Shell Patio\"."
          },
          "mode": 0,
          "options": {
            "showDisabledItems": false,
            "skipEmptyValues": false
          },
          "proxy": {
            "filter": ""
          },
          "refId": "H",
          "resultFormat": "time_series",
          "table": {
            "skipEmptyValues": false
          },
          "tags": {
            "filter": ""
          },
          "trigger": {
            "filter": ""
          },
          "triggers": {
            "acknowledged": 2,
            "count": true,
            "minSeverity": 3
          }
        }
      ],
      "timeFrom": null,
      "timeShift": null,
      "title": "Link - Shell Pátio",
      "type": "gauge"
    },
    {
      "datasource": null,
      "gridPos": {
        "h": 5,
        "w": 5,
        "x": 15,
        "y": 5
      },
      "id": 12,
      "options": {
        "fieldOptions": {
          "calcs": [
            "mean"
          ],
          "defaults": {
            "mappings": [],
            "max": 3,
            "min": 0,
            "thresholds": {
              "mode": "absolute",
              "steps": [
                {
                  "color": "green",
                  "value": null
                },
                {
                  "color": "red",
                  "value": 2.4
                }
              ]
            },
            "title": "",
            "unit": "s"
          },
          "overrides": [],
          "values": false
        },
        "orientation": "auto",
        "showThresholdLabels": false,
        "showThresholdMarkers": true
      },
      "pluginVersion": "6.7.0-beta1",
      "targets": [
        {
          "$$hashKey": "object:7759",
          "application": {
            "filter": ""
          },
          "datasource": "Zabbix",
          "functions": [],
          "group": {
            "filter": "WebServers"
          },
          "host": {
            "filter": "Tegma Webserver"
          },
          "item": {
            "filter": "Response time for step \"Aplicação Tegma POC\" of scenario \"Aplicação Tegma POC\"."
          },
          "mode": 0,
          "options": {
            "showDisabledItems": false,
            "skipEmptyValues": false
          },
          "proxy": {
            "filter": ""
          },
          "refId": "I",
          "resultFormat": "time_series",
          "table": {
            "skipEmptyValues": false
          },
          "tags": {
            "filter": ""
          },
          "trigger": {
            "filter": ""
          },
          "triggers": {
            "acknowledged": 2,
            "count": true,
            "minSeverity": 3
          }
        }
      ],
      "timeFrom": null,
      "timeShift": null,
      "title": "Link - POC Tegma",
      "type": "gauge"
    },
    {
      "datasource": null,
      "gridPos": {
        "h": 5,
        "w": 4,
        "x": 20,
        "y": 5
      },
      "id": 11,
      "options": {
        "fieldOptions": {
          "calcs": [
            "mean"
          ],
          "defaults": {
            "mappings": [],
            "max": 3,
            "min": 0,
            "thresholds": {
              "mode": "absolute",
              "steps": [
                {
                  "color": "green",
                  "value": null
                },
                {
                  "color": "red",
                  "value": 2.4
                }
              ]
            },
            "title": "",
            "unit": "s"
          },
          "overrides": [],
          "values": false
        },
        "orientation": "auto",
        "showThresholdLabels": false,
        "showThresholdMarkers": true
      },
      "pluginVersion": "6.7.0-beta1",
      "targets": [
        {
          "$$hashKey": "object:7759",
          "application": {
            "filter": ""
          },
          "datasource": "Zabbix",
          "functions": [],
          "group": {
            "filter": "WebServers"
          },
          "host": {
            "filter": "Ype Webserver"
          },
          "item": {
            "filter": "Response time for step \"Load website\" of scenario \"Aplicação Ypê\"."
          },
          "mode": 0,
          "options": {
            "showDisabledItems": false,
            "skipEmptyValues": false
          },
          "proxy": {
            "filter": ""
          },
          "refId": "J",
          "resultFormat": "time_series",
          "table": {
            "skipEmptyValues": false
          },
          "tags": {
            "filter": ""
          },
          "trigger": {
            "filter": ""
          },
          "triggers": {
            "acknowledged": 2,
            "count": true,
            "minSeverity": 3
          }
        }
      ],
      "timeFrom": null,
      "timeShift": null,
      "title": "Link - Ypê",
      "type": "gauge"
    }
  ],
  "schemaVersion": 22,
  "style": "dark",
  "tags": [],
  "templating": {
    "list": []
  },
  "time": {
    "from": "now-6h",
    "to": "now"
  },
  "timepicker": {},
  "timezone": "",
  "title": "Tempo de Resposta - Links",
  "uid": "tbA3ApXZz",
  "variables": {
    "list": []
  },
  "version": 1
}